\relax 
\providecommand\hyper@newdestlabel[2]{}
\catcode `"\active 
\catcode `<\active 
\catcode `>\active 
\@nameuse{es@quoting}
\providecommand\HyperFirstAtBeginDocument{\AtBeginDocument}
\HyperFirstAtBeginDocument{\ifx\hyper@anchor\@undefined
\global\let\oldcontentsline\contentsline
\gdef\contentsline#1#2#3#4{\oldcontentsline{#1}{#2}{#3}}
\global\let\oldnewlabel\newlabel
\gdef\newlabel#1#2{\newlabelxx{#1}#2}
\gdef\newlabelxx#1#2#3#4#5#6{\oldnewlabel{#1}{{#2}{#3}}}
\AtEndDocument{\ifx\hyper@anchor\@undefined
\let\contentsline\oldcontentsline
\let\newlabel\oldnewlabel
\fi}
\fi}
\global\let\hyper@last\relax 
\gdef\HyperFirstAtBeginDocument#1{#1}
\providecommand\HyField@AuxAddToFields[1]{}
\providecommand\HyField@AuxAddToCoFields[2]{}
\citation{bib_tanenbau}
\select@language{spanish}
\@writefile{toc}{\select@language{spanish}}
\@writefile{lof}{\select@language{spanish}}
\@writefile{lot}{\select@language{spanish}}
\@writefile{toc}{\contentsline {section}{\numberline {I}Introducci\IeC {\'o}n}{1}{section.1}}
\@writefile{toc}{\contentsline {section}{\numberline {II}Marco Te\IeC {\'o}rico}{1}{section.2}}
\@writefile{toc}{\contentsline {subsection}{\numberline {\unhbox \voidb@x \hbox {II-A}}Modelo OSI}{1}{subsection.2.1}}
\citation{bib_tanenbau}
\citation{bib_tanenbau}
\@writefile{lof}{\contentsline {figure}{\numberline {1}{\ignorespaces Modelo de referencia OSI.}}{2}{figure.1}}
\newlabel{fig_osi}{{1}{2}{Modelo de referencia OSI}{figure.1}{}}
\@writefile{toc}{\contentsline {subsection}{\numberline {\unhbox \voidb@x \hbox {II-B}}Modelo TCP/IP}{2}{subsection.2.2}}
\citation{bib_tanenbau}
\citation{bib_tanenbau}
\@writefile{lof}{\contentsline {figure}{\numberline {2}{\ignorespaces Modelo de referencia TCP/IP versus OSI.}}{3}{figure.2}}
\newlabel{fig_tcposi}{{2}{3}{Modelo de referencia TCP/IP versus OSI}{figure.2}{}}
\@writefile{lof}{\contentsline {figure}{\numberline {3}{\ignorespaces Modelo de referencia TCP/IP versus OSI.}}{3}{figure.3}}
\newlabel{fig_tcp}{{3}{3}{Modelo de referencia TCP/IP versus OSI}{figure.3}{}}
\@writefile{toc}{\contentsline {subsection}{\numberline {\unhbox \voidb@x \hbox {II-C}}TCP y UDP}{3}{subsection.2.3}}
\@writefile{toc}{\contentsline {subsubsection}{\numberline {\unhbox \voidb@x \hbox {II-C}1}TCP}{3}{subsubsection.2.3.1}}
\citation{bib_forouzan}
\citation{bib_william}
\citation{bib_tanenbau}
\@writefile{lof}{\contentsline {figure}{\numberline {4}{\ignorespaces Establecimiento de conexi\IeC {\'o}n usando \textit  {handshaking}}}{4}{figure.4}}
\newlabel{fig_handshaking}{{4}{4}{Establecimiento de conexión usando \textit {handshaking}}{figure.4}{}}
\@writefile{lof}{\contentsline {figure}{\numberline {5}{\ignorespaces Establecimiento de conexi\IeC {\'o}n usando \textit  {handshaking} operaci\IeC {\'o}n normal.}}{4}{figure.5}}
\newlabel{fig_handshaking_normal}{{5}{4}{Establecimiento de conexión usando \textit {handshaking} operación normal}{figure.5}{}}
\@writefile{toc}{\contentsline {subsubsection}{\numberline {\unhbox \voidb@x \hbox {II-C}2}UDP}{4}{subsubsection.2.3.2}}
\citation{bib_tanenbau}
\citation{bib_tanenbau}
\citation{bib_tanenbau}
\@writefile{toc}{\contentsline {subsection}{\numberline {\unhbox \voidb@x \hbox {II-D}}DNS}{5}{subsection.2.4}}
\@writefile{lof}{\contentsline {figure}{\numberline {6}{\ignorespaces Una porci\IeC {\'o}n del espacio de nombres de dominio de Internet.}}{5}{figure.6}}
\newlabel{fig_dns}{{6}{5}{Una porción del espacio de nombres de dominio de Internet}{figure.6}{}}
\@writefile{toc}{\contentsline {subsection}{\numberline {\unhbox \voidb@x \hbox {II-E}}HTTP}{5}{subsection.2.5}}
\citation{bib_tanenbau}
\citation{bib_tanenbau}
\@writefile{lof}{\contentsline {figure}{\numberline {7}{\ignorespaces HTTP entre dos entidades a trav\IeC {\'e}s del tiempo.}}{6}{figure.7}}
\newlabel{fig_http}{{7}{6}{HTTP entre dos entidades a través del tiempo}{figure.7}{}}
\@writefile{lof}{\contentsline {figure}{\numberline {8}{\ignorespaces M\IeC {\'e}todos de la solicitud HTTP integrados.}}{6}{figure.8}}
\newlabel{fig_httpmet}{{8}{6}{Métodos de la solicitud HTTP integrados}{figure.8}{}}
\@writefile{toc}{\contentsline {section}{\numberline {III}Procedimiento}{6}{section.3}}
\@writefile{toc}{\contentsline {section}{\numberline {IV}Captura de Datos}{7}{section.4}}
\@writefile{toc}{\contentsline {subsection}{\numberline {\unhbox \voidb@x \hbox {IV-A}}Conociendo IP y MAC}{7}{subsection.4.1}}
\@writefile{lot}{\contentsline {table}{\numberline {I}{\ignorespaces Datos capturados con wireshark de la petici\IeC {\'o}n de conexi\IeC {\'o}n con el servidor de la universidad nacional por el puerto 80}}{7}{table.1}}
\newlabel{tab_captureGlobal}{{I}{7}{Datos capturados con wireshark de la petición de conexión con el servidor de la universidad nacional por el puerto 80}{table.1}{}}
\@writefile{toc}{\contentsline {section}{\numberline {V}An\IeC {\'a}lisis de Capturas de Datos}{7}{section.5}}
\@writefile{lof}{\contentsline {figure}{\numberline {9}{\ignorespaces Pagina WEB de la Universidad Nacional obtenida del servidor con la direcci\IeC {\'o}n IP 168.176.236.5 puerto 80.}}{8}{figure.9}}
\newlabel{fig_unalpage}{{9}{8}{Pagina WEB de la Universidad Nacional obtenida del servidor con la dirección IP 168.176.236.5 puerto 80}{figure.9}{}}
\@writefile{toc}{\contentsline {subsection}{\numberline {\unhbox \voidb@x \hbox {V-A}}Solicitud de direcci\IeC {\'o}n IP Universidad Nacional}{8}{subsection.5.1}}
\@writefile{toc}{\contentsline {subsubsection}{\numberline {\unhbox \voidb@x \hbox {V-A}1}A nivel de aplicaci\IeC {\'o}n}{8}{subsubsection.5.1.1}}
\@writefile{toc}{\contentsline {subsubsection}{\numberline {\unhbox \voidb@x \hbox {V-A}2}A nivel capa de transporte}{9}{subsubsection.5.1.2}}
\@writefile{toc}{\contentsline {subsubsection}{\numberline {\unhbox \voidb@x \hbox {V-A}3}A nivel capa de Red}{9}{subsubsection.5.1.3}}
\@writefile{toc}{\contentsline {subsubsection}{\numberline {\unhbox \voidb@x \hbox {V-A}4}A nivel de capa de enlace}{9}{subsubsection.5.1.4}}
\@writefile{toc}{\contentsline {subsubsection}{\numberline {\unhbox \voidb@x \hbox {V-A}5}A nivel capa f\IeC {\'\i }sica}{10}{subsubsection.5.1.5}}
\@writefile{toc}{\contentsline {subsection}{\numberline {\unhbox \voidb@x \hbox {V-B}}Recibiendo respuesta sobre solicitud de direcci\IeC {\'o}n IP Universidad Nacional}{10}{subsection.5.2}}
\@writefile{toc}{\contentsline {subsubsection}{\numberline {\unhbox \voidb@x \hbox {V-B}1}A nivel de aplicaci\IeC {\'o}n}{10}{subsubsection.5.2.1}}
\@writefile{toc}{\contentsline {subsubsection}{\numberline {\unhbox \voidb@x \hbox {V-B}2}A nivel capa de transporte}{11}{subsubsection.5.2.2}}
\@writefile{toc}{\contentsline {subsubsection}{\numberline {\unhbox \voidb@x \hbox {V-B}3}A nivel capa de Red}{11}{subsubsection.5.2.3}}
\@writefile{toc}{\contentsline {subsubsection}{\numberline {\unhbox \voidb@x \hbox {V-B}4}A nivel de capa de enlace}{11}{subsubsection.5.2.4}}
\@writefile{toc}{\contentsline {subsubsection}{\numberline {\unhbox \voidb@x \hbox {V-B}5}A nivel capa f\IeC {\'\i }sica}{11}{subsubsection.5.2.5}}
\@writefile{toc}{\contentsline {subsection}{\numberline {\unhbox \voidb@x \hbox {V-C}}TCP handshaking: SYN}{12}{subsection.5.3}}
\@writefile{toc}{\contentsline {subsubsection}{\numberline {\unhbox \voidb@x \hbox {V-C}1}Transporte}{12}{lstlisting.-12}}
\@writefile{toc}{\contentsline {subsubsection}{\numberline {\unhbox \voidb@x \hbox {V-C}2}Red}{13}{lstlisting.-13}}
\@writefile{toc}{\contentsline {subsubsection}{\numberline {\unhbox \voidb@x \hbox {V-C}3}Enlace}{13}{lstlisting.-14}}
\@writefile{toc}{\contentsline {subsubsection}{\numberline {\unhbox \voidb@x \hbox {V-C}4}F\IeC {\'\i }sica}{13}{lstlisting.-15}}
\@writefile{toc}{\contentsline {subsection}{\numberline {\unhbox \voidb@x \hbox {V-D}}TCP handshaking: SYN-ACK}{13}{subsection.5.4}}
\@writefile{toc}{\contentsline {subsubsection}{\numberline {\unhbox \voidb@x \hbox {V-D}1}Transporte}{13}{lstlisting.-16}}
\@writefile{toc}{\contentsline {subsubsection}{\numberline {\unhbox \voidb@x \hbox {V-D}2}Red}{14}{lstlisting.-17}}
\@writefile{toc}{\contentsline {subsubsection}{\numberline {\unhbox \voidb@x \hbox {V-D}3}Enlace}{15}{lstlisting.-18}}
\@writefile{toc}{\contentsline {subsubsection}{\numberline {\unhbox \voidb@x \hbox {V-D}4}F\IeC {\'\i }sica}{15}{lstlisting.-19}}
\@writefile{toc}{\contentsline {subsection}{\numberline {\unhbox \voidb@x \hbox {V-E}}TCP handshaking: ACK}{15}{subsection.5.5}}
\@writefile{toc}{\contentsline {subsubsection}{\numberline {\unhbox \voidb@x \hbox {V-E}1}Transporte}{15}{lstlisting.-20}}
\@writefile{toc}{\contentsline {subsubsection}{\numberline {\unhbox \voidb@x \hbox {V-E}2}Red}{16}{lstlisting.-21}}
\@writefile{toc}{\contentsline {subsubsection}{\numberline {\unhbox \voidb@x \hbox {V-E}3}Enlace}{16}{lstlisting.-22}}
\@writefile{toc}{\contentsline {subsubsection}{\numberline {\unhbox \voidb@x \hbox {V-E}4}F\IeC {\'\i }sica}{16}{lstlisting.-23}}
\@writefile{toc}{\contentsline {subsection}{\numberline {\unhbox \voidb@x \hbox {V-F}}HTTP GET}{17}{subsection.5.6}}
\@writefile{toc}{\contentsline {subsubsection}{\numberline {\unhbox \voidb@x \hbox {V-F}1}Aplicaci\IeC {\'o}n}{17}{subsubsection.5.6.1}}
\@writefile{toc}{\contentsline {subsubsection}{\numberline {\unhbox \voidb@x \hbox {V-F}2}Red}{18}{lstlisting.-25}}
\@writefile{toc}{\contentsline {subsubsection}{\numberline {\unhbox \voidb@x \hbox {V-F}3}Enlace}{18}{lstlisting.-26}}
\@writefile{toc}{\contentsline {subsubsection}{\numberline {\unhbox \voidb@x \hbox {V-F}4}F\IeC {\'\i }sica}{18}{lstlisting.-27}}
\@writefile{toc}{\contentsline {subsubsection}{\numberline {\unhbox \voidb@x \hbox {V-F}5}Red}{19}{lstlisting.-28}}
\@writefile{toc}{\contentsline {subsubsection}{\numberline {\unhbox \voidb@x \hbox {V-F}6}Enlace}{19}{lstlisting.-29}}
\@writefile{toc}{\contentsline {subsubsection}{\numberline {\unhbox \voidb@x \hbox {V-F}7}F\IeC {\'\i }sica}{20}{lstlisting.-30}}
\@writefile{toc}{\contentsline {subsection}{\numberline {\unhbox \voidb@x \hbox {V-G}}TCP Segment 1}{20}{subsection.5.7}}
\@writefile{toc}{\contentsline {subsubsection}{\numberline {\unhbox \voidb@x \hbox {V-G}1}Transporte}{20}{subsubsection.5.7.1}}
\@writefile{toc}{\contentsline {subsubsection}{\numberline {\unhbox \voidb@x \hbox {V-G}2}Red}{21}{lstlisting.-32}}
\@writefile{toc}{\contentsline {subsubsection}{\numberline {\unhbox \voidb@x \hbox {V-G}3}Enlace}{21}{subsubsection.5.7.3}}
\@writefile{toc}{\contentsline {subsubsection}{\numberline {\unhbox \voidb@x \hbox {V-G}4}F\IeC {\'\i }sica}{21}{lstlisting.-34}}
\@writefile{toc}{\contentsline {subsection}{\numberline {\unhbox \voidb@x \hbox {V-H}}TCP segment 1: ACK}{21}{subsection.5.8}}
\@writefile{toc}{\contentsline {subsubsection}{\numberline {\unhbox \voidb@x \hbox {V-H}1}Transporte}{22}{lstlisting.-35}}
\@writefile{toc}{\contentsline {subsubsection}{\numberline {\unhbox \voidb@x \hbox {V-H}2}Red}{22}{lstlisting.-36}}
\@writefile{toc}{\contentsline {subsubsection}{\numberline {\unhbox \voidb@x \hbox {V-H}3}Enlace}{23}{lstlisting.-37}}
\@writefile{toc}{\contentsline {subsubsection}{\numberline {\unhbox \voidb@x \hbox {V-H}4}F\IeC {\'\i }sica}{23}{lstlisting.-38}}
\@writefile{toc}{\contentsline {subsection}{\numberline {\unhbox \voidb@x \hbox {V-I}}TCP segment 2}{23}{subsection.5.9}}
\@writefile{toc}{\contentsline {subsubsection}{\numberline {\unhbox \voidb@x \hbox {V-I}1}Transporte}{23}{lstlisting.-39}}
\@writefile{toc}{\contentsline {subsubsection}{\numberline {\unhbox \voidb@x \hbox {V-I}2}Red}{24}{lstlisting.-40}}
\@writefile{toc}{\contentsline {subsubsection}{\numberline {\unhbox \voidb@x \hbox {V-I}3}Enlace}{24}{lstlisting.-41}}
\@writefile{toc}{\contentsline {subsubsection}{\numberline {\unhbox \voidb@x \hbox {V-I}4}F\IeC {\'\i }sica}{24}{lstlisting.-42}}
\@writefile{toc}{\contentsline {subsection}{\numberline {\unhbox \voidb@x \hbox {V-J}}TCP segment 2 ACK}{24}{subsection.5.10}}
\@writefile{toc}{\contentsline {subsubsection}{\numberline {\unhbox \voidb@x \hbox {V-J}1}Transporte}{25}{lstlisting.-43}}
\@writefile{toc}{\contentsline {subsubsection}{\numberline {\unhbox \voidb@x \hbox {V-J}2}Red}{25}{lstlisting.-44}}
\bibcite{bib_tanenbau}{1}
\bibcite{bib_forouzan}{2}
\bibcite{bib_william}{3}
\@writefile{toc}{\contentsline {subsubsection}{\numberline {\unhbox \voidb@x \hbox {V-J}3}Enlace}{26}{lstlisting.-45}}
\@writefile{toc}{\contentsline {subsubsection}{\numberline {\unhbox \voidb@x \hbox {V-J}4}F\IeC {\'\i }sica}{26}{lstlisting.-46}}
\@writefile{toc}{\contentsline {section}{\numberline {VI}Conclusiones}{26}{section.6}}
\@writefile{toc}{\contentsline {section}{Referencias}{26}{section*.1}}
