\select@language {spanish}
\contentsline {section}{\numberline {1}Funciones Arm\'onicas}{1}{section.1}
\contentsline {section}{\numberline {2}Sucesiones}{1}{section.2}
\contentsline {subsection}{\numberline {2.1}Sucesi\IeC {\'o}n de Cauchy}{2}{subsection.2.1}
