\relax 
\providecommand\hyper@newdestlabel[2]{}
\catcode `"\active 
\catcode `<\active 
\catcode `>\active 
\@nameuse{es@quoting}
\providecommand\HyperFirstAtBeginDocument{\AtBeginDocument}
\HyperFirstAtBeginDocument{\ifx\hyper@anchor\@undefined
\global\let\oldcontentsline\contentsline
\gdef\contentsline#1#2#3#4{\oldcontentsline{#1}{#2}{#3}}
\global\let\oldnewlabel\newlabel
\gdef\newlabel#1#2{\newlabelxx{#1}#2}
\gdef\newlabelxx#1#2#3#4#5#6{\oldnewlabel{#1}{{#2}{#3}}}
\AtEndDocument{\ifx\hyper@anchor\@undefined
\let\contentsline\oldcontentsline
\let\newlabel\oldnewlabel
\fi}
\fi}
\global\let\hyper@last\relax 
\gdef\HyperFirstAtBeginDocument#1{#1}
\providecommand\HyField@AuxAddToFields[1]{}
\providecommand\HyField@AuxAddToCoFields[2]{}
\select@language{spanish}
\@writefile{toc}{\select@language{spanish}}
\@writefile{lof}{\select@language{spanish}}
\@writefile{lot}{\select@language{spanish}}
\@writefile{toc}{\contentsline {section}{\numberline {1}Octave}{1}{section.1}}
\@writefile{toc}{\contentsline {subsection}{\numberline {1.1}Plot funciones}{1}{subsection.1.1}}
\@writefile{lof}{\contentsline {figure}{\numberline {1}{\ignorespaces Ejemplo Plot de una funci\IeC {\'o}n}}{1}{figure.1}}
\newlabel{fig:ejemplo1Octave}{{1}{1}{Ejemplo Plot de una función}{figure.1}{}}
\@writefile{toc}{\contentsline {section}{\numberline {2}Series}{1}{section.2}}
\@writefile{toc}{\contentsline {subsection}{\numberline {2.1}Series de Taylor y McLaurin}{1}{subsection.2.1}}
\@writefile{toc}{\contentsline {subsection}{\numberline {2.2}Funci\'on Exponencial y Logaritmo Natural}{1}{subsection.2.2}}
\@writefile{toc}{\contentsline {subsection}{\numberline {2.3}Funciones Trigonom\'etricas}{2}{subsection.2.3}}
\@writefile{toc}{\contentsline {section}{\numberline {3}Logaritmo Complejo}{2}{section.3}}
\@writefile{toc}{\contentsline {subsection}{\numberline {3.1}Propiedades}{2}{subsection.3.1}}
\@writefile{toc}{\contentsline {section}{\numberline {4}Funciones Trigonom\'etricas}{2}{section.4}}
\@writefile{toc}{\contentsline {section}{\numberline {5}Derivadas}{2}{section.5}}
\@writefile{toc}{\contentsline {subsection}{\numberline {5.1}Regla de la cadena}{2}{subsection.5.1}}
