\select@language {spanish}
\contentsline {section}{\numberline {1}Octave}{1}{section.1}
\contentsline {subsection}{\numberline {1.1}Plot funciones}{1}{subsection.1.1}
\contentsline {section}{\numberline {2}Series}{1}{section.2}
\contentsline {subsection}{\numberline {2.1}Series de Taylor y McLaurin}{1}{subsection.2.1}
\contentsline {subsection}{\numberline {2.2}Funci\'on Exponencial y Logaritmo Natural}{1}{subsection.2.2}
\contentsline {subsection}{\numberline {2.3}Funciones Trigonom\'etricas}{2}{subsection.2.3}
\contentsline {section}{\numberline {3}Logaritmo Complejo}{2}{section.3}
\contentsline {subsection}{\numberline {3.1}Propiedades}{2}{subsection.3.1}
\contentsline {section}{\numberline {4}Funciones Trigonom\'etricas}{2}{section.4}
\contentsline {section}{\numberline {5}Derivadas}{2}{section.5}
\contentsline {subsection}{\numberline {5.1}Regla de la cadena}{2}{subsection.5.1}
